Chapter 12: Logical Vectors
…
Summarize

Use to count number and proportion with certain conditions

Other summarize examples

Simple Filtering

Filter all flights leaving Midway (MDW)

chiflights2020 |> 
  filter(origin == "MDW")

# A tibble: 60,365 × 19
    year month   day dep_time sched_dep_time dep_delay arr_time sched_arr_time
   <dbl> <dbl> <dbl>    <dbl>          <dbl>     <dbl>    <dbl>          <dbl>
 1  2020     1     1      552            600        -8      827            901
 2  2020     1     1      555            600        -5      933            945
 3  2020     1     1      557            600        -3      933            935
 4  2020     1     1      559            600        -1     1006           1000
 5  2020     1     1      601            605        -4      844            850
 6  2020     1     1      601            605        -4      907            915
 7  2020     1     1      615            615         0      736            802
 8  2020     1     1      616            615         1      856            910
 9  2020     1     1      623            620         3      949            950
10  2020     1     1      630            625         5      856            920
# ℹ 60,355 more rows
# ℹ 11 more variables: arr_delay <dbl>, carrier <chr>, flight <dbl>,
#   tailnum <chr>, origin <chr>, dest <chr>, air_time <dbl>, distance <dbl>,
#   hour <dbl>, minute <dbl>, time_hour <dttm>

Simple Filtering

Filter cancelled flights

chiflights2020 |> 
  filter(is.na(dep_delay))

# A tibble: 17,287 × 19
    year month   day dep_time sched_dep_time dep_delay arr_time sched_arr_time
   <dbl> <dbl> <dbl>    <dbl>          <dbl>     <dbl>    <dbl>          <dbl>
 1  2020     1     1       NA            856        NA       NA           1200
 2  2020     1     1       NA           1247        NA       NA           1505
 3  2020     1     1       NA            800        NA       NA           1022
 4  2020     1     1       NA           1415        NA       NA           1654
 5  2020     1     2       NA            705        NA       NA           1009
 6  2020     1     2       NA           2105        NA       NA           2303
 7  2020     1     2       NA           1000        NA       NA           1311
 8  2020     1     4       NA           1759        NA       NA           2154
 9  2020     1     4       NA           1143        NA       NA           1347
10  2020     1     4       NA           1506        NA       NA           1803
# ℹ 17,277 more rows
# ℹ 11 more variables: arr_delay <dbl>, carrier <chr>, flight <dbl>,
#   tailnum <chr>, origin <chr>, dest <chr>, air_time <dbl>, distance <dbl>,
#   hour <dbl>, minute <dbl>, time_hour <dttm>

Simple Filtering

Flights that “made up time” in flight:

chiflights2020 |> 
  filter(arr_delay < dep_delay) |> 
  select(time_hour, dep_delay, arr_delay) |> 
  arrange(desc(dep_delay)) # put longest delays first

# A tibble: 185,397 × 3
   time_hour           dep_delay arr_delay
   <dttm>                  <dbl>     <dbl>
 1 2020-01-18 13:00:00      1394      1386
 2 2020-03-15 10:00:00      1266      1257
 3 2020-02-25 15:00:00      1233      1220
 4 2020-12-28 18:00:00      1214      1196
 5 2020-11-15 18:00:00      1165      1154
 6 2020-02-06 18:00:00      1142      1117
 7 2020-02-13 15:00:00      1120      1094
 8 2020-03-05 18:00:00      1094      1091
 9 2020-08-04 13:00:00      1087      1061
10 2020-01-25 18:00:00      1014      1009
# ℹ 185,387 more rows

Complex Filtering

Find all the flights that left from O’Hare (ORD) before noon destined for Orlando (MCO) and arrived more than one hour late.

chiflights2020 |> 
  filter(origin == "ORD", dep_time < 1200, dest == "MCO", arr_delay > 60)

# A tibble: 33 × 19
    year month   day dep_time sched_dep_time dep_delay arr_time sched_arr_time
   <dbl> <dbl> <dbl>    <dbl>          <dbl>     <dbl>    <dbl>          <dbl>
 1  2020     1     4     1042            840       122     1453           1224
 2  2020     1    11     1008            855        73     1404           1239
 3  2020     1    12     1026            756       150     1454           1203
 4  2020     1    18      952            801       111     1336           1153
 5  2020     1    18     1137           1001        96     1520           1352
 6  2020     1    23      933            801        92     1332           1153
 7  2020     1    26     1039            801       158     1413           1153
 8  2020     2    11      837            617       140     1210            958
 9  2020     2    11      932            801        91     1309           1153
10  2020     2    12        8           2025       223      425             19
# ℹ 23 more rows
# ℹ 11 more variables: arr_delay <dbl>, carrier <chr>, flight <dbl>,
#   tailnum <chr>, origin <chr>, dest <chr>, air_time <dbl>, distance <dbl>,
#   hour <dbl>, minute <dbl>, time_hour <dttm>

Filtering with %in%

All flights leaving Midway headed for Florida destinations:

florida_dest <- c("DAB", "FLL", "RSW", "VPS", "GNV", "JAX", "EYW", "MLB", "MIA", 
"MCO", "ECP", "PNS", "PGD", "SFB", "SRQ", "PIE", "TLH", "TPA", 
"PBI") # from Wikipedia
chiflights2020 |> 
  filter(origin == "MDW", dest %in% florida_dest) |> 
  select(year, month, day, origin, dest)

# A tibble: 7,637 × 5
    year month   day origin dest 
   <dbl> <dbl> <dbl> <chr>  <chr>
 1  2020     1     1 MDW    RSW  
 2  2020     1     1 MDW    MCO  
 3  2020     1     1 MDW    FLL  
 4  2020     1     1 MDW    TPA  
 5  2020     1     1 MDW    FLL  
 6  2020     1     1 MDW    RSW  
 7  2020     1     1 MDW    MCO  
 8  2020     1     1 MDW    TPA  
 9  2020     1     1 MDW    MCO  
10  2020     1     1 MDW    TPA  
# ℹ 7,627 more rows

Filtering with %in% with NAs

Find all flights to Florida that were either canceled or left on the hour

chiflights2020 |> 
  filter(dest %in% florida_dest, dep_time %in% c(NA, seq(0,2400,100))) |> 
  select(time_hour ,dep_time, dest)  

# A tibble: 2,026 × 3
   time_hour           dep_time dest 
   <dttm>                 <dbl> <chr>
 1 2020-01-01 11:00:00     1100 MCO  
 2 2020-01-02 07:00:00      700 TPA  
 3 2020-01-02 11:00:00     1100 MCO  
 4 2020-01-02 19:00:00     1900 MCO  
 5 2020-01-03 09:00:00      900 MCO  
 6 2020-01-04 17:00:00       NA TPA  
 7 2020-01-05 06:00:00      600 TPA  
 8 2020-01-05 07:00:00      700 MIA  
 9 2020-01-06 09:00:00      900 MCO  
10 2020-01-06 15:00:00     1500 RSW  
# ℹ 2,016 more rows
…
Logical summaries

Check if any() or all() conditions are true for the group_by() group:

During which hour spans were any or all departures out of O’Hare delayed by more than a half hour?

chiflights2020 |> 
  group_by(year, month, day) |> 
  summarize(
    all_long_delayed = all(dep_delay >= 30, na.rm = TRUE),
    any_long_delayed = any(dep_delay >= 30, na.rm = TRUE),
    .groups = "drop"
  ) 

# A tibble: 366 × 5
    year month   day all_long_delayed any_long_delayed
   <dbl> <dbl> <dbl> <lgl>            <lgl>           
 1  2020     1     1 FALSE            TRUE            
 2  2020     1     2 FALSE            TRUE            
 3  2020     1     3 FALSE            TRUE            
 4  2020     1     4 FALSE            TRUE            
 5  2020     1     5 FALSE            TRUE            
 6  2020     1     6 FALSE            TRUE            
 7  2020     1     7 FALSE            TRUE            
 8  2020     1     8 FALSE            TRUE            
 9  2020     1     9 FALSE            TRUE            
10  2020     1    10 FALSE            TRUE            
# ℹ 356 more rows
…
Assume na for dep_delay means the flight was cancelled.

chiflights2020 |> 
  mutate(flight_date = date(time_hour)) |>  # extracT using date() 
  group_by(flight_date) |> 
  summarize(
    num_flights = n(),
    num_late_or_cancelled = sum(dep_delay > 0| is.na(dep_delay)),
    prop_late_or_cancelled = mean(dep_delay > 0| is.na(dep_delay)),
   .groups = "drop"
  ) |> 
  filter(prop_late_or_cancelled > 0.5) 

# A tibble: 30 × 4
   flight_date num_flights num_late_or_cancelled prop_late_or_cancelled
   <date>            <int>                 <int>                  <dbl>
 1 2020-01-04          986                   549                  0.557
 2 2020-01-11          788                   637                  0.808
 3 2020-01-12         1004                   600                  0.598
 4 2020-01-17         1084                   645                  0.595
 5 2020-01-18          771                   557                  0.722
 6 2020-01-23         1083                   601                  0.555
 7 2020-02-06         1086                   737                  0.679
 8 2020-02-09         1012                   638                  0.630
 9 2020-02-13         1105                   938                  0.849
10 2020-02-26         1087                   572                  0.526
# ℹ 20 more rows
…
